<svg width="16" height="16" viewBox="0 0 16 16" fill="none" xmlns="http://www.w3.org/2000/svg">
<path d="M0 1.77783L1.77776 5.09189e-05L15.9998 14.2223L14.2221 16L0 1.77783Z" fill="#FFED00"/>
<path d="M1.77783 16L7.53502e-05 14.2222L14.2221 0L15.9999 1.77778L1.77783 16Z" fill="#FFED00"/>
</svg>
