<svg width="30" height="28" viewBox="0 0 30 28" fill="none" xmlns="http://www.w3.org/2000/svg">
<path d="M29.1357 12.5303L24.73 8.01749V2.80443C24.73 1.86183 23.9843 1.09793 23.0627 1.09793C22.1432 1.09793 21.3975 1.86183 21.3975 2.80443V4.60408L18.1171 1.24381C16.4952 -0.416577 13.6753 -0.413632 12.0572 1.24682L1.04119 12.5303C0.390892 13.1977 0.390892 14.2777 1.04119 14.9441C1.69178 15.6113 2.74815 15.6113 3.3985 14.9441L14.4134 3.66029C14.7723 3.29466 15.4047 3.29466 15.7617 3.65921L26.7785 14.9441C27.1051 15.2777 27.531 15.4437 27.9568 15.4437C28.3835 15.4437 28.8101 15.2776 29.1358 14.9441C29.7863 14.2777 29.7863 13.1978 29.1357 12.5303Z" fill="white"/>
<path d="M15.6673 6.89954C15.3473 6.5719 14.8291 6.5719 14.5099 6.89954L4.82028 16.8218C4.6673 16.9784 4.58057 17.1923 4.58057 17.4155V24.6524C4.58057 26.3506 5.92482 27.7274 7.58266 27.7274H12.38V20.1173H17.7962V27.7274H22.5936C24.2514 27.7274 25.5956 26.3506 25.5956 24.6524V17.4155C25.5956 17.1923 25.5097 16.9784 25.3559 16.8218L15.6673 6.89954Z" fill="white"/>
</svg>
