<svg width="28" height="27" viewBox="0 0 28 27" fill="none" xmlns="http://www.w3.org/2000/svg">
<path d="M26.5328 5.61281C25.9056 2.62508 24.9333 0.532714 24.8921 0.445133C24.7233 0.0848288 24.3169 -0.0874816 23.9488 0.0449082C23.877 0.0705714 22.1634 0.693007 20.0048 2.01242C18.5359 2.91023 16.6509 4.27038 15.0186 6.10286C15.3443 6.52753 15.6558 6.97175 15.947 7.43735C15.9479 7.43898 15.9489 7.44061 15.9499 7.44224C16.4395 8.22578 16.8573 9.04273 17.1921 9.87067C17.6656 11.0412 17.9988 12.2855 18.1927 13.5971L21.613 5.13886C21.7749 4.73884 22.2225 4.54901 22.613 4.7146C23.0035 4.88039 23.1888 5.33887 23.0272 5.73889L18.3788 17.2338C18.3402 18.2575 18.2297 19.3133 18.0465 20.3997C17.6757 22.599 17.0794 24.4564 16.6403 25.6365C17.3393 25.2715 18.1466 24.8106 18.9972 24.2476C20.4742 23.2701 21.7757 22.1862 22.8655 21.026C24.2433 19.5592 25.2858 17.965 25.9643 16.2875C26.6426 14.6102 27.0058 12.7278 27.0442 10.6927C27.0744 9.08285 26.9022 7.3738 26.5328 5.61281Z" fill="white"/>
<path d="M15.778 10.4704C15.4777 9.7276 15.1017 8.99293 14.6607 8.28679C14.6605 8.28638 14.6601 8.28597 14.6599 8.28557C12.8055 5.31759 10.0296 3.23601 8.02747 2.01212C5.86883 0.692704 4.15539 0.0702684 4.08341 0.0444015C3.99989 0.0142574 3.91439 0 3.83008 0C3.54315 0 3.27073 0.1662 3.14009 0.444626C3.09893 0.532207 2.12679 2.62458 1.49943 5.61231C1.12978 7.3733 0.957785 9.08255 0.988009 10.6924C1.02639 12.7273 1.38967 14.6097 2.06813 16.2872C2.74638 17.9645 3.78892 19.5589 5.16671 21.0255C6.25657 22.1859 7.5582 23.2699 9.03521 24.2473C11.0004 25.5478 12.7353 26.3052 13.4358 26.5869L5.78471 7.66659C5.62286 7.26657 5.80838 6.80789 6.19891 6.6423C6.58944 6.47671 7.03703 6.66654 7.19889 7.06656L14.8498 25.9865C15.2073 25.1447 16.0657 22.9358 16.5384 20.1326C17.1528 16.4884 16.8971 13.2378 15.778 10.4704Z" fill="white"/>
</svg>
