<svg width="27" height="26" viewBox="0 0 27 26" fill="none" xmlns="http://www.w3.org/2000/svg">
<path d="M13.7362 15.1927C9.91732 15.1927 6.82321 11.7231 6.82321 7.4462C6.82321 3.16981 9.91732 0 13.7362 0C17.5557 0 20.6523 3.16981 20.6523 7.4462C20.6523 11.7231 17.5556 15.1927 13.7362 15.1927ZM2.98278 25.6648C2.98278 25.6648 1.51645 25.7553 0.870577 24.9229C0.521592 24.4732 0.764695 23.5618 1.00335 23.0533L1.58783 21.8073C1.58783 21.8073 3.20423 18.4257 5.04427 16.4662C6.17457 15.2645 7.5189 15.5382 8.3884 15.929C8.92394 16.1694 9.52948 16.87 9.97199 17.2413C10.5818 17.7529 11.6583 18.3343 13.4182 18.367H14.498C16.2569 18.3343 17.3334 17.7529 17.9427 17.2413C18.3847 16.8701 18.9735 16.1478 19.5042 15.8994C20.3023 15.5257 21.5169 15.2958 22.6176 16.4663C24.4583 18.4259 25.916 21.8688 25.916 21.8688L26.515 23.0906C26.7628 23.5956 27.0167 24.5025 26.6774 24.9582C26.072 25.773 24.7126 25.6649 24.7126 25.6649L2.98278 25.6648Z" fill="white"/>
</svg>
